﻿  conversions.cpp
c1xx : fatal error C1083: Cannot open source file: '..\..\..\..\..\..\..\bitbucket\repo\3des\FinalProjectClean\conversions.cpp': No such file or directory
  DES.cpp
c1xx : fatal error C1083: Cannot open source file: '..\..\..\..\..\..\..\bitbucket\repo\3des\FinalProjectClean\DES.cpp': No such file or directory
  essentialFuncs.cpp
c1xx : fatal error C1083: Cannot open source file: '..\..\..\..\..\..\..\bitbucket\repo\3des\FinalProjectClean\essentialFuncs.cpp': No such file or directory
  permutations.cpp
c1xx : fatal error C1083: Cannot open source file: '..\..\..\..\..\..\..\bitbucket\repo\3des\FinalProjectClean\permutations.cpp': No such file or directory
  Generating Code...
