^D:\EMBRY-RIDDLE\SCHOOL WORK\JUNIOR\FALL\CS 303\FINAL PROJECT\DES\DES\SOURCE.CPP
/c /ZI /JMC /nologo /W3 /WX- /diagnostics:classic /sdl /Od /Oy- /D _MBCS /Gm- /EHsc /RTC1 /MDd /GS /fp:precise /permissive- /Zc:wchar_t /Zc:forScope /Zc:inline /Fo"DEBUG\\" /Fd"DEBUG\VC141.PDB" /Gd /TP /analyze- /FC D:\EMBRY-RIDDLE\SCHOOL WORK\JUNIOR\FALL\CS 303\FINAL PROJECT\DES\DES\SOURCE.CPP
^C:\USERS\RCSCC\DOCUMENTS\EMBRY RIDDLE\BIT\3DES\FINAL PROJECT\DES\DES\SOURCE.CPP
/c /ZI /JMC /nologo /W3 /WX- /diagnostics:classic /sdl /Od /Oy- /D _MBCS /Gm- /EHsc /RTC1 /MDd /GS /fp:precise /permissive- /Zc:wchar_t /Zc:forScope /Zc:inline /Fo"DEBUG\\" /Fd"DEBUG\VC141.PDB" /Gd /TP /analyze- /FC C:\USERS\RCSCC\DOCUMENTS\EMBRY RIDDLE\BIT\3DES\FINAL PROJECT\DES\DES\SOURCE.CPP
