^D:\EMBRY-RIDDLE\SCHOOL WORK\JUNIOR\FALL\CS 303\FINAL PROJECT\DES\DES\SOURCE.CPP
D:\EMBRY-RIDDLE\SCHOOL WORK\JUNIOR\FALL\CS 303\FINAL PROJECT\DES\DES\DEBUG\VC141.PDB
D:\EMBRY-RIDDLE\SCHOOL WORK\JUNIOR\FALL\CS 303\FINAL PROJECT\DES\DES\DEBUG\VC141.IDB
D:\EMBRY-RIDDLE\SCHOOL WORK\JUNIOR\FALL\CS 303\FINAL PROJECT\DES\DES\DEBUG\SOURCE.OBJ
^C:\USERS\RCSCC\DOCUMENTS\EMBRY RIDDLE\BIT\3DES\FINAL PROJECT\DES\DES\SOURCE.CPP
C:\USERS\RCSCC\DOCUMENTS\EMBRY RIDDLE\BIT\3DES\FINAL PROJECT\DES\DES\DEBUG\VC141.PDB
C:\USERS\RCSCC\DOCUMENTS\EMBRY RIDDLE\BIT\3DES\FINAL PROJECT\DES\DES\DEBUG\VC141.IDB
C:\USERS\RCSCC\DOCUMENTS\EMBRY RIDDLE\BIT\3DES\FINAL PROJECT\DES\DES\DEBUG\SOURCE.OBJ
