^D:\EMBRY-RIDDLE\SCHOOL WORK\JUNIOR\FALL\CS 303\FINAL PROJECT\DES\DES\DEBUG\SOURCE.OBJ
/OUT:"D:\EMBRY-RIDDLE\SCHOOL WORK\JUNIOR\FALL\CS 303\FINAL PROJECT\DES\DEBUG\DES.EXE" /INCREMENTAL /NOLOGO KERNEL32.LIB USER32.LIB GDI32.LIB WINSPOOL.LIB COMDLG32.LIB ADVAPI32.LIB SHELL32.LIB OLE32.LIB OLEAUT32.LIB UUID.LIB ODBC32.LIB ODBCCP32.LIB /MANIFEST /MANIFESTUAC:"level='asInvoker' uiAccess='false'" /manifest:embed /DEBUG:FASTLINK /PDB:"D:\EMBRY-RIDDLE\SCHOOL WORK\JUNIOR\FALL\CS 303\FINAL PROJECT\DES\DEBUG\DES.PDB" /SUBSYSTEM:CONSOLE /TLBID:1 /DYNAMICBASE /NXCOMPAT /IMPLIB:"D:\EMBRY-RIDDLE\SCHOOL WORK\JUNIOR\FALL\CS 303\FINAL PROJECT\DES\DEBUG\DES.LIB" /MACHINE:X86 DEBUG\SOURCE.OBJ
^C:\USERS\RCSCC\DOCUMENTS\EMBRY RIDDLE\BIT\3DES\FINAL PROJECT\DES\DES\DEBUG\SOURCE.OBJ
/OUT:"C:\USERS\RCSCC\DOCUMENTS\EMBRY RIDDLE\BIT\3DES\FINAL PROJECT\DES\DEBUG\DES.EXE" /INCREMENTAL /NOLOGO KERNEL32.LIB USER32.LIB GDI32.LIB WINSPOOL.LIB COMDLG32.LIB ADVAPI32.LIB SHELL32.LIB OLE32.LIB OLEAUT32.LIB UUID.LIB ODBC32.LIB ODBCCP32.LIB /MANIFEST /MANIFESTUAC:"level='asInvoker' uiAccess='false'" /manifest:embed /DEBUG:FASTLINK /PDB:"C:\USERS\RCSCC\DOCUMENTS\EMBRY RIDDLE\BIT\3DES\FINAL PROJECT\DES\DEBUG\DES.PDB" /SUBSYSTEM:CONSOLE /TLBID:1 /DYNAMICBASE /NXCOMPAT /IMPLIB:"C:\USERS\RCSCC\DOCUMENTS\EMBRY RIDDLE\BIT\3DES\FINAL PROJECT\DES\DEBUG\DES.LIB" /MACHINE:X86 DEBUG\SOURCE.OBJ
